{
  "implemented": true,
  "name": "Pumpkaboo",
  "nationalPokedexNumber": 710,
  "primaryType": "ghost",
  "secondaryType": "grass",
  "abilities": [
    "pickup",
    "frisk",
    "h:insomnia"
  ],
  "baseStats": {
    "hp": 49,
    "attack": 66,
    "defence": 70,
    "special_attack": 44,
    "special_defence": 55,
    "speed": 51
  },
  "catchRate": 120,
  "maleRatio": 0.5,
  "shoulderMountable": false,
  "forms": [
    {
      "name": "Small",
      "primaryType": "ghost",
      "secondaryType": "grass",
      "abilities": [
        "pickup",
        "frisk",
        "h:insomnia"
      ],
      "baseStats": {
        "hp": 44,
        "attack": 66,
        "defence": 70,
        "special_attack": 44,
        "special_defence": 55,
        "speed": 56
      },
      "catchRate": 120,
      "maleRatio": 0.5,
      "baseExperienceYield": 67,
      "baseFriendship": 50,
      "evYield": {
        "hp": 0,
        "attack": 0,
        "defence": 1,
        "special_attack": 0,
        "special_defence": 0,
        "speed": 0
      },
      "experienceGroup": "medium_fast",
      "eggCycles": 20,
      "eggGroups": [
        "amorphous"
      ],
      "moves": [],
      "labels": [
        "gen6"
      ],
      "aspects": [
        "small"
      ],
      "height": 3,
      "weight": 35,
      "evolutions": [
        {
          "id": "pumpkaboo_gourgeist",
          "variant": "trade",
          "result": "gourgeist pumpkin_size=small",
          "consumeHeldItem": false,
          "learnableMoves": [],
          "requirements": []
        }
      ],
      "cannotDynamax": false,
      "battleOnly": false
    },
    {
      "name": "Large",
      "primaryType": "ghost",
      "secondaryType": "grass",
      "abilities": [
        "pickup",
        "frisk",
        "h:insomnia"
      ],
      "baseStats": {
        "hp": 54,
        "attack": 66,
        "defence": 70,
        "special_attack": 44,
        "special_defence": 55,
        "speed": 46
      },
      "catchRate": 120,
      "maleRatio": 0.5,
      "baseExperienceYield": 67,
      "baseFriendship": 50,
      "evYield": {
        "hp": 0,
        "attack": 0,
        "defence": 1,
        "special_attack": 0,
        "special_defence": 0,
        "speed": 0
      },
      "experienceGroup": "medium_fast",
      "eggCycles": 20,
      "eggGroups": [
        "amorphous"
      ],
      "moves": [],
      "labels": [
        "gen6"
      ],
      "aspects": [
        "large"
      ],
      "height": 5,
      "weight": 75,
      "evolutions": [
        {
          "id": "pumpkaboo_gourgeist",
          "variant": "trade",
          "result": "gourgeist pumpkin_size=large",
          "consumeHeldItem": false,
          "learnableMoves": [],
          "requirements": []
        }
      ],
      "cannotDynamax": false,
      "battleOnly": false
    },
    {
      "name": "Super",
      "primaryType": "ghost",
      "secondaryType": "grass",
      "abilities": [
        "pickup",
        "frisk",
        "h:insomnia"
      ],
      "baseStats": {
        "hp": 59,
        "attack": 66,
        "defence": 70,
        "special_attack": 44,
        "special_defence": 55,
        "speed": 41
      },
      "catchRate": 120,
      "maleRatio": 0.5,
      "baseExperienceYield": 67,
      "baseFriendship": 50,
      "evYield": {
        "hp": 0,
        "attack": 0,
        "defence": 1,
        "special_attack": 0,
        "special_defence": 0,
        "speed": 0
      },
      "experienceGroup": "medium_fast",
      "eggCycles": 20,
      "eggGroups": [
        "amorphous"
      ],
      "moves": [
        "tutor:astonish",
        "tutor:scaryface",
        "tutor:shadowsneak",
        "tutor:trickortreat"
      ],
      "labels": [
        "gen6"
      ],
      "aspects": [
        "super"
      ],
      "height": 8,
      "weight": 150,
      "evolutions": [
        {
          "id": "pumpkaboo_gourgeist",
          "variant": "trade",
          "result": "gourgeist pumpkin_size=super",
          "consumeHeldItem": false,
          "learnableMoves": [],
          "requirements": []
        }
      ],
      "cannotDynamax": false,
      "battleOnly": false
    }
  ],
  "baseExperienceYield": 67,
  "experienceGroup": "medium_fast",
  "eggCycles": 20,
  "eggGroups": [
    "amorphous"
  ],
  "drops": {
    "amount": "2",
    "entries": [
      {
        "item": "minecraft:pumpkin_seeds",
        "percentage": 50
      },
      {
        "item": "cobblemon:miracle_seed",
        "percentage": 2.5
      }
    ]
  },
  "moves": [
    "1:astonish",
    "1:confuseray",
    "1:trick",
    "4:scaryface",
    "6:trickortreat",
    "11:worryseed",
    "16:razorleaf",
    "20:leechseed",
    "26:bulletseed",
    "30:shadowsneak",
    "36:shadowball",
    "42:painsplit",
    "48:seedbomb",
    "egg:bestow",
    "egg:curse",
    "egg:destinybond",
    "egg:disable",
    "tm:allyswitch",
    "tm:attract",
    "tm:bulletseed",
    "tm:chargebeam",
    "tm:confide",
    "tm:darkpulse",
    "tm:doubleteam",
    "tm:dreameater",
    "tm:endure",
    "tm:energyball",
    "tm:explosion",
    "tm:facade",
    "tm:fireblast",
    "tm:flamecharge",
    "tm:flamethrower",
    "tm:flash",
    "tm:foulplay",
    "tm:frustration",
    "tm:gigadrain",
    "tm:grassknot",
    "tm:gyroball",
    "tm:hex",
    "tm:hiddenpower",
    "tm:imprison",
    "tm:incinerate",
    "tm:lightscreen",
    "tm:mysticalfire",
    "tm:naturepower",
    "tm:protect",
    "tm:psychic",
    "tm:rest",
    "tm:return",
    "tm:rockslide",
    "tm:rocksmash",
    "tm:round",
    "tm:safeguard",
    "tm:scaryface",
    "tm:secretpower",
    "tm:seedbomb",
    "tm:shadowball",
    "tm:skillswap",
    "tm:sleeptalk",
    "tm:sludgebomb",
    "tm:snore",
    "tm:solarbeam",
    "tm:substitute",
    "tm:sunnyday",
    "tm:swagger",
    "tm:thief",
    "tm:toxic",
    "tm:trick",
    "tm:trickroom",
    "tm:willowisp",
    "tutor:allyswitch",
    "tutor:foulplay",
    "tutor:gigadrain",
    "tutor:grassyglide",
    "tutor:magiccoat",
    "tutor:painsplit",
    "tutor:poltergeist",
    "tutor:roleplay",
    "tutor:seedbomb",
    "tutor:skillswap",
    "tutor:skittersmack",
    "tutor:spite",
    "tutor:synthesis",
    "tutor:telekinesis",
    "tutor:trick",
    "tutor:worryseed"
  ],
  "labels": [
    "gen6"
  ],
  "pokedex": [
    "cobblemon.species.pumpkaboo.desc"
  ],
  "evolutions": [
    {
      "id": "pumpkaboo_gourgeist",
      "variant": "trade",
      "result": "gourgeist pumpkin_size=average",
      "consumeHeldItem": false,
      "learnableMoves": [],
      "requirements": []
    }
  ],
  "baseScale": 1,
  "hitbox": {
    "width": 1,
    "height": 1,
    "fixed": false
  },
  "baseFriendship": 50,
  "evYield": {
    "hp": 0,
    "attack": 0,
    "defence": 1,
    "special_attack": 0,
    "special_defence": 0,
    "speed": 0
  },
  "height": 4,
  "weight": 50,
  "aspects": [],
  "cannotDynamax": false
}