{
  "name": "Zoroark",
  "nationalPokedexNumber": 571,
  "primaryType": "dark",
  "abilities": [
    "illusion"
  ],
  "baseStats": {
    "hp": 60,
    "attack": 105,
    "defence": 60,
    "special_attack": 120,
    "special_defence": 60,
    "speed": 105
  },
  "catchRate": 45,
  "maleRatio": 0.875,
  "shoulderMountable": false,
  "forms": [
    {
      "name": "Hisui",
      "primaryType": "normal",
      "secondaryType": "ghost",
      "abilities": [
        "illusion"
      ],
      "baseStats": {
        "hp": 60,
        "attack": 105,
        "defence": 60,
        "special_attack": 120,
        "special_defence": 60,
        "speed": 105
      },
      "catchRate": 45,
      "maleRatio": 0.875,
      "baseExperienceYield": 0,
      "baseFriendship": 50,
      "evYield": {
        "hp": 0,
        "attack": 0,
        "defence": 0,
        "special_attack": 2,
        "special_defence": 0,
        "speed": 0
      },
      "experienceGroup": "medium_slow",
      "eggCycles": 20,
      "eggGroups": [
        "field"
      ],
      "moves": [
        "1:honeclaws",
        "1:leer",
        "1:scratch",
        "1:torment",
        "1:uturn",
        "12:shadowsneak",
        "16:curse",
        "20:taunt",
        "24:knockoff",
        "28:spite",
        "34:agility",
        "40:shadowball",
        "46:bittermalice",
        "52:nastyplot",
        "58:foulplay",
        "tm:aerialace",
        "tm:agility",
        "tm:bodyslam",
        "tm:brickbreak",
        "tm:calmmind",
        "tm:confuseray",
        "tm:crunch",
        "tm:darkpulse",
        "tm:dig",
        "tm:endure",
        "tm:facade",
        "tm:faketears",
        "tm:flamethrower",
        "tm:fling",
        "tm:focusblast",
        "tm:foulplay",
        "tm:gigaimpact",
        "tm:grassknot",
        "tm:helpinghand",
        "tm:hex",
        "tm:hyperbeam",
        "tm:hypervoice",
        "tm:icywind",
        "tm:imprison",
        "tm:lowkick",
        "tm:lowsweep",
        "tm:nastyplot",
        "tm:nightshade",
        "tm:phantomforce",
        "tm:protect",
        "tm:psychic",
        "tm:raindance",
        "tm:rest",
        "tm:scaryface",
        "tm:shadowball",
        "tm:shadowclaw",
        "tm:sleeptalk",
        "tm:sludgebomb",
        "tm:snarl",
        "tm:snowscape",
        "tm:substitute",
        "tm:swift",
        "tm:swordsdance",
        "tm:takedown",
        "tm:taunt",
        "tm:terablast",
        "tm:thief",
        "tm:trick",
        "tm:uturn",
        "tm:willowisp"
      ],
      "labels": [
        "gen8",
        "hisui_regional"
      ],
      "aspects": [
        "hisuian"
      ],
      "height": 16,
      "weight": 730,
      "preEvolution": "zorua form=hisui",
      "evolutions": [],
      "cannotDynamax": false,
      "battleOnly": false
    }
  ],
  "baseExperienceYield": 179,
  "experienceGroup": "medium_slow",
  "eggCycles": 20,
  "eggGroups": [
    "field"
  ],
  "moves": [
    "1:honeclaws",
    "1:leer",
    "1:pursuit",
    "1:scratch",
    "1:uturn",
    "13:furyswipes",
    "17:feintattack",
    "21:scaryface",
    "24:knockoff",
    "25:taunt",
    "28:faketears",
    "29:foulplay",
    "30:nightslash",
    "34:torment",
    "39:agility",
    "44:embargo",
    "49:punishment",
    "54:nastyplot",
    "59:imprison",
    "64:nightdaze",
    "tm:aerialace",
    "tm:agility",
    "tm:assurance",
    "tm:attract",
    "tm:bodyslam",
    "tm:bounce",
    "tm:brickbreak",
    "tm:calmmind",
    "tm:confide",
    "tm:confuseray",
    "tm:crunch",
    "tm:cut",
    "tm:darkpulse",
    "tm:dig",
    "tm:doubleteam",
    "tm:embargo",
    "tm:encore",
    "tm:endure",
    "tm:facade",
    "tm:faketears",
    "tm:flamethrower",
    "tm:fling",
    "tm:focusblast",
    "tm:foulplay",
    "tm:frustration",
    "tm:gigaimpact",
    "tm:grassknot",
    "tm:helpinghand",
    "tm:hex",
    "tm:hiddenpower",
    "tm:honeclaws",
    "tm:hyperbeam",
    "tm:hypervoice",
    "tm:imprison",
    "tm:incinerate",
    "tm:lowkick",
    "tm:lowsweep",
    "tm:megakick",
    "tm:megapunch",
    "tm:nastyplot",
    "tm:nightshade",
    "tm:payback",
    "tm:protect",
    "tm:psychic",
    "tm:psychup",
    "tm:raindance",
    "tm:rest",
    "tm:retaliate",
    "tm:return",
    "tm:revenge",
    "tm:roar",
    "tm:rocksmash",
    "tm:round",
    "tm:scaryface",
    "tm:secretpower",
    "tm:shadowball",
    "tm:shadowclaw",
    "tm:sleeptalk",
    "tm:sludgebomb",
    "tm:snarl",
    "tm:snore",
    "tm:substitute",
    "tm:sunnyday",
    "tm:swagger",
    "tm:swift",
    "tm:swordsdance",
    "tm:takedown",
    "tm:taunt",
    "tm:terablast",
    "tm:thief",
    "tm:throatchop",
    "tm:torment",
    "tm:toxic",
    "tm:trick",
    "tm:uproar",
    "tm:uturn",
    "tutor:agility",
    "tutor:bounce",
    "tutor:burningjealousy",
    "tutor:covet",
    "tutor:darkpulse",
    "tutor:embargo",
    "tutor:flamethrower",
    "tutor:foulplay",
    "tutor:furyswipes",
    "tutor:hypervoice",
    "tutor:knockoff",
    "tutor:laserfocus",
    "tutor:lashout",
    "tutor:lowkick",
    "tutor:nastyplot",
    "tutor:punishment",
    "tutor:scaryface",
    "tutor:skittersmack",
    "tutor:sleeptalk",
    "tutor:sludgebomb",
    "tutor:snarl",
    "tutor:snatch",
    "tutor:snore",
    "tutor:spite",
    "tutor:suckerpunch",
    "tutor:throatchop",
    "tutor:trick",
    "tutor:uproar"
  ],
  "labels": [
    "gen5",
    "unova_regional"
  ],
  "pokedex": [
    "cobblemon.species.zoroark.desc"
  ],
  "preEvolution": "zorua",
  "evolutions": [],
  "baseScale": 1,
  "hitbox": {
    "width": 1,
    "height": 1,
    "fixed": false
  },
  "baseFriendship": 50,
  "evYield": {
    "hp": 0,
    "attack": 0,
    "defence": 0,
    "special_attack": 2,
    "special_defence": 0,
    "speed": 0
  },
  "height": 16,
  "weight": 811,
  "aspects": [],
  "cannotDynamax": false
}