{
	"format_version": "1.8.0",
	"animations": {
		"animation.ironleaves.ground_idle": {
			"loop": true
		},
		"animation.ironleaves.ground_walk": {
			"loop": true,
			"animation_length": 2,
			"bones": {
				"body": {
					"position": [0, "math.abs(math.sin(q.anim_time*90*4)*0.25)", 0]
				},
				"torso": {
					"position": [0, "math.abs(math.sin(q.anim_time*90*4-45)*0.25)", 0]
				},
				"neck": {
					"rotation": ["20+math.sin(q.anim_time*90*8-45)*1", 0, 0]
				},
				"head_angle": {
					"rotation": ["-20+math.sin(q.anim_time*90*8-90)*1", 0, 0]
				},
				"leg_back_left": {
					"rotation": ["math.sin(q.anim_time*90*4-90)*10", 0, 0],
					"position": [0, "math.clamp(-math.sin(q.anim_time*90*4+90*0)*1,0,180)", 0]
				},
				"leg_back_left2": {
					"rotation": ["math.clamp(math.sin(q.anim_time*90*4+45)*20,-90,5)", 0, 0]
				},
				"foot_back_left": {
					"rotation": ["-math.clamp(math.sin(q.anim_time*90*4+10)*25,-90,0)", 0, 0]
				},
				"leg_back_right": {
					"rotation": ["-math.sin(q.anim_time*90*4-90)*10", 0, 0],
					"position": [0, "math.clamp(math.sin(q.anim_time*90*4+90*0)*1,0,180)", 0]
				},
				"leg_back_right2": {
					"rotation": ["math.clamp(-math.sin(q.anim_time*90*4+45)*25,-90,0)", 0, 0]
				},
				"foot_back_right": {
					"rotation": ["-math.clamp(-math.sin(q.anim_time*90*4-10)*25,-90,0)", 0, 0]
				},
				"leg_front_left": {
					"rotation": ["-math.sin(q.anim_time*90*4-90)*10", 0, 0],
					"position": [0, "math.clamp(math.sin(q.anim_time*90*4+90*0)*1,0,180)", 0]
				},
				"leg_front_left2": {
					"rotation": ["-math.clamp(-math.sin(q.anim_time*90*4)*15,-90,5)", 0, 0]
				},
				"foot_front_left": {
					"rotation": ["-math.clamp(-math.sin(q.anim_time*90*4+10)*25,-90,0)", 0, 0]
				},
				"leg_front_right": {
					"rotation": ["math.sin(q.anim_time*90*4-90)*10", 0, 0],
					"position": [0, "math.clamp(-math.sin(q.anim_time*90*4+90*0)*1,0,180)", 0]
				},
				"leg_front_right2": {
					"rotation": ["-math.clamp(math.sin(q.anim_time*90*4)*15,-90,5)", 0, 0]
				},
				"foot_front_right": {
					"rotation": ["-math.clamp(math.sin(q.anim_time*90*4-10)*25,-90,0)", 0, 0]
				},
				"neck2": {
					"rotation": [2.5, 0, 0]
				}
			}
		},
		"animation.ironleaves.sleep": {
			"loop": true,
			"bones": {
				"body": {
					"rotation": [7.5, 0, 0],
					"position": [0, -1.9, 0]
				},
				"neck": {
					"rotation": ["50+2*math.sin(q.anim_time*90/2+90)", 0, 0],
					"position": [0, -1, -1]
				},
				"head_angle": {
					"rotation": ["3*math.sin(q.anim_time*90/2+90)", 0, 0]
				},
				"leg_back_left": {
					"rotation": [7.5, 0, 0]
				},
				"leg_back_left2": {
					"rotation": [-12.5, 0, 0]
				},
				"foot_back_left": {
					"rotation": [-2.5, 0, 0]
				},
				"leg_back_right": {
					"rotation": [7.5, 0, 0]
				},
				"leg_back_right2": {
					"rotation": [-12.5, 0, 0]
				},
				"foot_back_right": {
					"rotation": [-2.5, 0, 0]
				},
				"leg_front_left": {
					"rotation": ["-50+1*math.sin(q.anim_time*90/2+90)", -5, 0]
				},
				"leg_front_left2": {
					"rotation": ["42.5-1*math.sin(q.anim_time*90/2+90)", 0, 0]
				},
				"leg_front_right": {
					"rotation": ["-50+1*math.sin(q.anim_time*90/2+90)", 5, 0]
				},
				"leg_front_right2": {
					"rotation": ["42.5-1*math.sin(q.anim_time*90/2+90)", 0, 0]
				},
				"neck2": {
					"rotation": ["1*math.sin(q.anim_time*90/2+90)", 0, 0]
				},
				"neck3": {
					"rotation": ["-5*math.sin(q.anim_time*90/2+90)", 0, 0]
				},
				"chest": {
					"rotation": ["1*math.sin(q.anim_time*90/2+90)", 0, 0]
				}
			}
		},
		"animation.ironleaves.blink": {
			"animation_length": 0.16667,
			"bones": {
				"pupil_left": {
					"position": {
						"0.0": [-0.1, 0, 0],
						"0.125": [-0.1, 0, 0],
						"0.1667": [0, 0, 0]
					}
				},
				"pupil_right": {
					"position": {
						"0.0": [0.1, 0, 0],
						"0.125": [0.1, 0, 0],
						"0.1667": [0, 0, 0]
					}
				}
			}
		}
	},
	"geckolib_format_version": 2
}