{
    "type": "minecraft:crafting_shaped",
    "pattern": [
        " S ",
        "S S",
        " B "
    ],
    "key": {
        "S": {
            "item": "minecraft:string"
        },
        "B": {
            "item": "minecraft:water_bucket"
        }
    },
    "result":
    {
        "item": "cobblemon:mystic_water"
    }
}