{
  "implemented": true,
  "name": "Tentacool",
  "nationalPokedexNumber": 72,
  "primaryType": "water",
  "secondaryType": "poison",
  "abilities": [
    "clearbody",
    "liquidooze",
    "h:raindish"
  ],
  "baseStats": {
    "hp": 40,
    "attack": 40,
    "defence": 35,
    "special_attack": 50,
    "special_defence": 100,
    "speed": 70
  },
  "catchRate": 190,
  "maleRatio": 0.5,
  "shoulderMountable": false,
  "baseExperienceYield": 67,
  "experienceGroup": "slow",
  "eggCycles": 20,
  "eggGroups": [
    "water_3"
  ],
  "behaviour": {
    "moving": {
      "walk": {
        "avoidsLand": true
      },
      "swim": {
        "swimSpeed": 0.2,
        "canSwimInWater": true,
        "canBreatheUnderwater": true
      },
      "wanderChance": 1
    }
  },
    "resting": {
      "canSleep": true,
      "willSleepOnBed": false,
      "depth": "normal",
      "light": "0-4"
    },
  "drops": {
    "amount": "1",
    "entries": [
      {
        "item": "cobblemon:poison_barb",
        "percentage": 2.5
      },
      {
        "item": "minecraft:glow_ink_sac",
        "quantityRange": "1-3",
        "percentage": 10
      },
      {
        "item": "minecraft:ink_sac",
        "quantityRange": "1-3"
      }
    ]
  },
  "moves": [
    "1:poisonsting",
    "1:watergun",
    "6:supersonic",
    "12:constrict",
    "15:toxicspikes",
    "19:acid",
    "25:bubblebeam",
    "26:acidspray",
    "29:waterpulse",
    "30:wrap",
    "32:acidarmor",
    "33:poisonjab",
    "34:brine",
    "36:barrier",
    "40:surf",
    "43:hex",
    "43:screech",
    "43:wringout",
    "49:hydropump",
    "50:sludgewave",
    "egg:acupressure",
    "egg:aquaring",
    "egg:aurorabeam",
    "egg:bubble",
    "egg:confuseray",
    "egg:haze",
    "egg:knockoff",
    "egg:mirrorcoat",
    "egg:muddywater",
    "egg:rapidspin",
    "egg:safeguard",
    "egg:tickle",
    "tm:attract",
    "tm:blizzard",
    "tm:brine",
    "tm:brutalswing",
    "tm:captivate",
    "tm:confide",
    "tm:crosspoison",
    "tm:cut",
    "tm:dazzlinggleam",
    "tm:dive",
    "tm:doubleteam",
    "tm:endure",
    "tm:facade",
    "tm:frustration",
    "tm:gigadrain",
    "tm:hail",
    "tm:hex",
    "tm:hiddenpower",
    "tm:hydropump",
    "tm:icebeam",
    "tm:icywind",
    "tm:infestation",
    "tm:muddywater",
    "tm:naturalgift",
    "tm:payback",
    "tm:poisonjab",
    "tm:protect",
    "tm:raindance",
    "tm:rest",
    "tm:return",
    "tm:round",
    "tm:safeguard",
    "tm:scald",
    "tm:screech",
    "tm:secretpower",
    "tm:sleeptalk",
    "tm:sludgebomb",
    "tm:sludgewave",
    "tm:snore",
    "tm:substitute",
    "tm:surf",
    "tm:swagger",
    "tm:swordsdance",
    "tm:thief",
    "tm:toxic",
    "tm:toxicspikes",
    "tm:venoshock",
    "tm:waterfall",
    "tm:waterpulse",
    "tm:whirlpool",
    "tutor:acid",
    "tutor:acupressure",
    "tutor:attract",
    "tutor:aurorabeam",
    "tutor:barrier",
    "tutor:bide",
    "tutor:bind",
    "tutor:blizzard",
    "tutor:bubblebeam",
    "tutor:constrict",
    "tutor:curse",
    "tutor:cut",
    "tutor:dazzlinggleam",
    "tutor:dive",
    "tutor:doubleedge",
    "tutor:doubleteam",
    "tutor:endure",
    "tutor:facade",
    "tutor:frustration",
    "tutor:gigadrain",
    "tutor:haze",
    "tutor:headbutt",
    "tutor:hiddenpower",
    "tutor:hydropump",
    "tutor:icebeam",
    "tutor:icywind",
    "tutor:knockoff",
    "tutor:magiccoat",
    "tutor:megadrain",
    "tutor:mimic",
    "tutor:mirrorcoat",
    "tutor:poisonjab",
    "tutor:poisonsting",
    "tutor:protect",
    "tutor:rage",
    "tutor:raindance",
    "tutor:rapidspin",
    "tutor:reflect",
    "tutor:rest",
    "tutor:return",
    "tutor:safeguard",
    "tutor:scald",
    "tutor:screech",
    "tutor:skullbash",
    "tutor:sleeptalk",
    "tutor:sludgebomb",
    "tutor:snore",
    "tutor:substitute",
    "tutor:supersonic",
    "tutor:surf",
    "tutor:swagger",
    "tutor:swordsdance",
    "tutor:takedown",
    "tutor:toxic",
    "tutor:waterfall",
    "tutor:watergun",
    "tutor:waterpulse",
    "tutor:whirlpool",
    "tutor:wrap"
  ],
  "labels": [
    "gen1"
  ],
  "pokedex": [
    "cobblemon.species.tentacool.desc"
  ],
  "evolutions": [
    {
      "id": "tentacool_tentacruel",
      "variant": "level_up",
      "result": "tentacruel",
      "consumeHeldItem": false,
      "learnableMoves": [],
      "requirements": [
        {
          "variant": "level",
          "minLevel": 30
        }
      ]
    }
  ],
  "baseScale": 0.8,
  "hitbox": {
    "width": 0.8,
    "height": 2.1,
    "fixed": false
  },
  "baseFriendship": 50,
  "evYield": {
    "hp": 0,
    "attack": 0,
    "defence": 0,
    "special_attack": 0,
    "special_defence": 1,
    "speed": 0
  },
  "height": 9,
  "weight": 455,
  "aspects": [],
  "cannotDynamax": false
}